jacksonnetwork
Mean number in system =   232.7396
Mean delay in system  =   296.5392
Total time run        =  1274.1239
Total jobs arrived    =       1000
Total jobs completed  =       1000
Average arrival rate  =     0.7849
