shortestPath_SimPy
Search for shortest path from Atown to Fstadt 
in graph {'Fstadt': (('Fstadt', 'Ccity', 3),), 'Evillage': (('Evillage', 'Btown', 1),), 'Ccity': (('Ccity', 'Ccity', 1), ('Ccity', 'Fstadt', 9), ('Ccity', 'Dpueblo', 3), ('Ccity', 'Atown', 3)), 'Atown': (('Atown', 'Btown', 3.5), ('Atown', 'Ccity', 1), ('Atown', 'Atown', 9), ('Atown', 'Evillage', 0.5)), 'Dpueblo': (('Dpueblo', 'Ccity', 2), ('Dpueblo', 'Fstadt', 10)), 'Btown': (('Btown', 'Ccity', 5),)}
Path so far: [] (length 0). Search from Atown to Atown
Path so far: ['Atown'] (length 0). Search from Atown to Btown
Path so far: ['Atown'] (length 0). Search from Atown to Ccity
Path so far: ['Atown'] (length 0). Search from Atown to Atown
Path so far: ['Atown'] (length 0). Search from Atown to Evillage
Path so far: ['Atown', 'Evillage'] (length 0.5). Search from Evillage to Btown
Path so far: ['Atown', 'Ccity'] (length 1). Search from Ccity to Ccity
Path so far: ['Atown', 'Ccity'] (length 1). Search from Ccity to Fstadt
Path so far: ['Atown', 'Ccity'] (length 1). Search from Ccity to Dpueblo
Path so far: ['Atown', 'Ccity'] (length 1). Search from Ccity to Atown
Path so far: ['Atown', 'Evillage', 'Btown'] (length 1.5). Search from Btown to Ccity
Path so far: ['Atown', 'Ccity', 'Dpueblo'] (length 4). Search from Dpueblo to Ccity
Path so far: ['Atown', 'Ccity', 'Dpueblo'] (length 4). Search from Dpueblo to Fstadt
('SHORTEST PATH', ['Atown', 'Ccity', 'Fstadt'], 'Length:', 10)
